89.185.84.3:22049
174.77.111.198:49547
18.231.122.148:1080
98.188.47.150:4145
192.252.216.81:4145
184.178.172.23:4145
184.170.248.5:4145
192.252.211.197:14921
98.162.25.23:4145
174.64.199.82:4145
72.210.221.223:4145
104.200.135.46:4145
98.178.72.21:10919
72.206.181.123:4145
72.210.252.137:4145
72.210.252.134:46164
68.71.249.153:48606
199.58.184.97:4145
98.175.31.195:4145
67.201.59.70:4145
199.102.107.145:4145
199.116.114.11:4145
43.248.27.8:4646
184.178.172.14:4145
47.100.184.89:80
142.54.228.193:4145
51.161.33.206:33670
72.206.181.105:64935
72.195.34.60:27391
36.111.142.184:15778
98.162.25.4:31654
51.254.167.41:33677
5.161.98.204:9227
192.111.139.165:4145
107.181.161.81:4145
103.174.178.245:2016
65.169.38.73:26592
185.164.138.104:1080
74.119.144.60:4145
192.252.209.155:14455
184.170.249.65:4145
104.200.152.30:4145
98.170.57.249:4145
72.210.208.101:4145
188.93.213.242:1080
192.252.208.67:14287
185.231.115.246:7237
199.187.210.54:4145
72.195.34.42:4145
192.111.137.34:18765
199.58.185.9:4145
37.221.67.107:8080
68.1.210.163:4145
103.234.27.168:1080
199.102.104.70:4145
120.42.46.226:6663
174.77.111.197:4145
107.181.168.145:4145
103.234.27.78:9990
194.124.36.106:10820
184.185.2.12:4145
72.49.49.11:31034
51.15.237.175:16379
98.162.25.29:31679
174.77.111.196:4145
47.243.30.66:37469
142.54.239.1:4145
185.247.224.85:8080
72.37.217.3:4145
174.64.199.79:4145
69.167.170.149:58722
142.54.231.38:4145
194.233.78.142:35314
188.191.164.55:4890
210.207.204.52:1080
70.166.167.55:57745
72.210.221.197:4145
192.111.135.17:18302
101.36.120.133:30010
47.236.20.144:15673
24.249.199.12:4145
192.111.139.163:19404
51.75.121.63:49314
68.1.210.189:4145
72.37.216.68:4145
194.233.78.142:49653
176.115.79.195:1080
54.38.176.200:58346
192.252.214.20:15864
206.220.175.2:4145
119.148.8.54:9990
139.196.151.191:6667
92.255.88.219:1080
3.7.68.108:80
162.240.79.167:60752
194.233.78.142:42495
212.47.236.229:16379
72.195.34.35:27360
184.178.172.26:4145
31.211.130.237:8192
72.195.114.169:4145
98.162.25.16:4145
184.181.217.213:4145
142.54.236.97:4145
67.201.33.10:25283
47.254.197.186:62011
104.219.42.115:64912
72.195.34.41:4145
192.252.220.92:17328
51.15.252.246:16379
142.54.232.6:4145
220.247.162.70:9990
94.73.251.19:1080
98.181.137.80:4145
88.99.91.33:39241
68.178.205.93:64488
167.99.39.82:29529
178.49.22.23:1080
47.113.224.182:9091
192.99.12.211:23213
86.102.226.131:1080
92.205.61.38:26750
5.189.184.147:18628
68.71.254.6:4145
152.228.218.210:59561
147.135.223.135:46782
184.181.217.220:4145
51.254.167.41:4872
72.217.158.202:4145
72.195.34.59:4145
162.243.195.11:29970
51.15.230.100:16379
8.217.238.160:15673
81.169.254.66:45450
152.32.130.117:18080
103.162.31.23:49935
39.101.65.228:8082
68.71.247.130:4145
113.137.37.41:1080
51.222.241.8:14162
37.187.91.192:21981
198.11.175.180:8080
142.54.229.249:4145
49.0.252.39:808
47.92.247.250:8002
49.0.199.132:83
199.229.254.129:4145
47.243.124.21:8009
101.132.25.152:77
47.252.27.174:20000
159.138.252.45:8080
47.253.105.175:9000
47.243.242.70:80
47.91.56.120:3128
47.113.224.182:9090
72.195.34.58:4145
112.124.2.212:87
47.253.214.60:4848
51.15.219.145:16379
72.217.216.239:4145
184.181.217.201:4145
47.253.214.60:1604
159.69.153.169:5566
88.99.91.33:32804
198.8.84.3:4145
194.233.78.142:37687
184.178.172.13:15311
162.240.16.34:54420
89.32.250.248:59866
70.166.167.38:57728
98.188.47.132:4145
51.38.32.192:60314
51.83.184.241:9191
12.7.109.3:56981
51.15.205.223:16379
194.233.78.142:33391
172.85.108.78:54505
195.201.173.249:16325
79.143.187.58:11477
8.209.64.208:2080
51.79.207.184:11847
96.126.118.190:801
184.178.172.5:15303
119.148.55.122:9990
24.249.199.4:4145
47.253.214.60:5566
47.253.214.60:8084
47.252.27.174:8088
184.181.217.206:4145
113.106.74.21:1080
37.187.120.71:2354
104.238.111.107:21453
47.243.124.21:9091
47.109.52.147:81
47.88.11.3:1337
159.138.255.141:800
159.138.255.141:8014
103.174.178.131:1020
8.213.137.155:8888
47.113.230.224:5001
47.253.105.175:20
110.238.116.82:8083
123.56.129.203:81
47.254.153.78:8090
47.243.50.83:8888
39.104.79.145:21025
8.209.68.1:3129
47.243.50.83:3128
115.29.148.215:9090
8.209.64.208:111
47.109.57.93:5678
110.238.116.82:8899
207.180.198.241:52415
115.127.77.6:9990
98.162.25.7:31653
184.178.172.25:15291
120.79.31.133:8080
167.71.73.130:33035
51.15.211.42:16379
51.68.164.77:64360
115.29.149.2:9002
68.183.29.98:40606
163.172.131.178:16379
51.15.247.93:16379
207.180.222.120:42853
51.158.105.157:16379
8.219.5.240:6969
8.213.129.15:6666
47.74.71.208:8181
47.113.224.182:7777
49.0.250.196:9002
8.219.167.110:9999
98.181.137.83:4145
49.0.252.39:9999
8.219.167.110:8081
110.238.113.119:500
198.11.175.192:3128
47.254.153.78:8192
94.74.80.88:8084
94.74.80.88:666
47.91.95.174:3128
115.29.140.201:9443
47.252.20.42:10021
47.254.153.78:8888
8.213.128.6:8050
47.254.158.115:4063
8.219.167.110:3128
47.252.27.174:83
8.213.129.20:11666
101.132.25.152:902
47.92.247.250:8181
47.252.20.42:1337
49.0.252.39:8888
47.113.219.226:9992
47.113.219.226:5001
202.149.89.67:7999
8.219.167.110:8024
178.79.165.164:19923
110.238.109.146:1337
183.56.203.183:1080
47.91.95.174:8888
54.38.176.200:42951
159.203.177.49:24492
47.254.158.115:555
198.11.175.192:808
37.44.238.2:57167
47.254.47.61:7302
110.238.113.119:9994
47.92.248.86:8889
47.92.242.45:7890
162.243.237.104:6608
167.71.250.32:55993
39.104.79.145:8029
47.92.247.250:1080
47.243.124.21:8888
47.243.50.83:8181
47.109.53.253:5005
49.0.253.51:8999
198.11.175.180:4145
47.252.20.42:8085
8.219.5.240:20201
49.0.246.130:5001
47.92.248.86:21025
110.238.113.119:8080
198.11.175.192:9090
159.138.252.45:5566
103.242.175.119:7891
47.109.46.223:8060
138.201.120.118:64851
119.13.111.169:8291
139.198.120.15:29527
8.219.74.58:81
47.96.70.163:2000
47.98.134.232:9090
8.219.169.172:805
8.219.74.58:3128
110.238.111.229:8014
94.74.80.88:8009
47.253.105.175:20002
115.29.148.215:8989
8.213.137.155:20002
8.219.43.134:8080
47.74.64.65:80
50.28.106.236:59029
49.0.252.39:1337
69.61.200.104:36181
141.94.26.156:5480
115.127.106.226:9990
71.6.134.30:9551
8.213.128.6:8080
8.213.128.6:888
8.213.128.6:11000
69.167.170.149:61748
47.74.71.208:8001
178.79.165.164:3826
47.74.64.65:1080
45.91.93.166:13552
120.244.86.67:1080
61.135.30.54:7302
135.125.9.103:1290
47.113.203.122:55443
69.167.170.149:61901
89.148.195.249:1080
54.36.108.149:57269
103.213.118.46:1080
72.167.8.5:44774
167.71.250.32:53661
103.130.218.135:19808
64.227.130.198:7890
184.181.217.194:4145
37.187.91.192:17605
152.69.229.244:13650
8.222.156.13:15673
198.12.251.108:45345
212.47.245.57:16379
167.86.84.85:8410
101.43.41.171:9091
178.79.165.164:52936
69.167.170.149:57876
103.162.31.103:20056
135.125.9.103:46789
178.79.165.164:63142
113.106.74.22:1080
69.167.170.149:56693
128.199.234.135:34033
31.217.221.74:8192
51.38.50.249:9224
106.75.26.66:17072
161.97.134.59:9203
175.6.103.17:1080
208.102.51.6:58208
178.79.165.164:46261
144.24.77.90:55555
51.254.167.41:48800
31.220.42.230:9150
174.75.211.222:4145
185.23.118.97:20436
51.68.120.148:29645
51.158.98.211:16379
101.200.235.69:55443
206.189.24.32:34767
104.251.81.246:43157
109.238.11.197:11091
51.79.177.70:53517
138.68.16.30:13469
104.168.68.141:25445
173.212.253.25:22248
147.124.212.31:59726
173.249.33.122:14177
146.56.101.184:21681
184.181.217.210:4145
98.170.57.231:4145
125.141.139.198:5566
175.24.205.226:443
167.172.159.43:49633
163.53.204.178:9813
178.128.82.105:2706
5.161.98.204:45055
125.141.133.98:5566
54.38.192.5:3838
128.199.163.44:63000
103.234.27.147:1080
182.160.126.106:9990
47.242.57.198:61502
144.91.95.238:58237
202.139.198.15:3050
8.218.60.8:15673
128.199.163.44:29583
148.72.158.110:23359
8.222.140.255:15673
